…
# Now we have a tidied dataframe :

longitudinal_data
```

    ## # A tibble: 160 x 4
    ##    arm     id    week  observations
    ##    <chr>   <chr> <chr>        <dbl>
    ##  1 control 01    1             0.2 
    ##  2 control 02    1             1.13
    ##  3 control 03    1             1.77
    ##  4 control 04    1             1.04
    ##  5 control 05    1             0.47
    ##  6 control 06    1             2.37
    ##  7 control 07    1             0.03
    ##  8 control 08    1            -0.08
    ##  9 control 09    1             0.08
    ## 10 control 10    1             2.14
    ## # ... with 150 more rows
…
